0.0 0.0 0.0
0.010001 -0.0 57.5
0.029771 3.46572 0.0
0.03977 2.13527 0.0
0.049761 0.4737974 0.0
0.059764 -0.6255038 0.0
0.069756 -0.6314759 0.0
0.079759 -0.4696889 0.0
0.08976999 -0.0 0.0
0.09976799 -0.0 0.0
0.10976 -0.0 0.0
0.119765 -0.0 0.0
0.129759 -0.0 0.0
0.139764 -0.0 0.0
0.149761 -0.0 0.0
0.159768 -0.0 0.0
0.169767 -0.0 0.0
0.179771 -0.0 0.0
0.189757 -0.0 0.0
0.199762 -0.0 0.0
0.209762 -0.0 0.0
0.219757 -0.0 0.0
0.229756 -0.0 0.0
0.239759 -0.0 0.0
0.249763 -0.0 0.0
0.259764 -0.0 0.0
0.26977 -0.0 0.0
0.279767 -0.0 0.0
0.289766 -0.0 0.0
0.299761 -0.0 0.0
0.30976 -0.0 0.0
0.319758 -0.0 0.0
0.329759 -0.0 0.0
0.339764 -0.0 0.0
0.34976 -0.0 0.0
0.359769 -0.0 0.0
0.369764 -0.0 0.0
0.379769 -0.0 0.0
0.389756 -0.0 0.0
0.399757 -0.0 0.0
0.409763 -0.0 0.0
0.419759 -0.0 0.0
0.429757 -0.0 0.0
0.439767 -0.0 0.0
0.44976 -0.0 0.0
0.459762 -0.0 0.0
0.469766 -0.0 0.0
0.47976 -0.0 0.0
0.489766 -0.0 0.0
0.499759 -0.0 0.0
0.509769 -0.0 0.0
0.519758 -0.0 0.0
0.529765 -0.0 0.0
0.539759 -0.0 0.0
0.549767 -0.0 0.0
0.559768 -0.0 0.0
0.569763 -0.0 0.0
0.579762 -0.0 0.0
0.589756 -0.0 0.0
0.59976 -0.0 0.0
0.609768 -0.0 0.0
0.619758 -0.0 0.0
0.629768 -0.0 0.0
0.639766 -0.0 0.0
0.649761 -0.0 0.0
0.659771 -0.0 0.0
0.669769 -0.0 0.0
0.679763 -0.0 0.0
0.689757 -0.0 0.0
0.699759 -0.0 0.0
0.70976 -0.0 0.0
0.71977 -0.0 0.0
0.729768 -0.0 0.0
0.73976 -0.0 0.0
0.749756 -0.0 0.0
0.759757 -0.0 0.0
0.769769 -0.0 0.0
0.779767 -0.0 0.0
0.789765 -0.0 0.0
0.799764 -0.0 0.0
0.809762 -0.0 0.0
0.819769 -0.0 0.0
0.829768 -0.0 0.0
0.839765 -0.0 0.0
0.849759 -0.0 0.0
0.85977 -0.0 0.0
0.86977 -0.0 0.0
0.879759 -0.0 0.0
0.88976 -0.0 0.0
0.899757 -0.0 0.0
0.909758 -0.0 0.0
0.919768 -0.0 0.0
0.929768 -0.0 0.0
0.939757 -0.0 0.0
0.949759 -0.0 0.0
0.959766 -0.0 0.0
0.969769 -0.0 0.0
0.979759 -0.0 0.0
0.9897631 -0.0 0.0
0.999765 -0.0 0.0
1.009769 -0.0 0.0
1.019978 -0.0 57.5
1.029997 -0.0 57.5
1.040003 -0.0 57.5
1.049991 -0.0 57.5
1.060003 -0.0 57.5
1.069991 -0.0 57.5
1.079991 -0.0 57.5
1.089999 -0.0 57.5
1.099997 -0.0 57.5
1.110001 -0.0 57.5
1.119994 -0.0 57.5
1.130004 -0.0 57.5
1.139995 -0.0 57.5
1.15 -0.0 57.5
1.159998 -0.0 57.5
1.170005 -0.0 57.5
1.179994 -0.0 57.5
1.189995 -0.0 57.5
1.199993 -0.0 57.5
1.210002 -0.0 57.5
1.219994 -0.0 57.5
1.230004 -0.0 57.5
1.240003 -0.0 57.5
1.249995 -0.0 57.5
1.26 -0.0 57.5
1.269994 -0.0 57.5
1.279994 -0.0 57.5
1.289989 -0.0 57.5
1.299989 -0.0 57.5
1.310003 -0.0 57.5
1.319987 -0.0 57.5
1.330003 -0.0 57.5
1.340003 -0.0 57.5
1.350001 -0.0 57.5
1.360002 -0.0 57.5
1.37 -0.0 57.5
1.380004 -0.0 57.5
1.389991 -0.0 57.5
1.399993 -0.0 57.5
1.409993 -0.0 57.5
1.42 -0.0 57.5
1.430007 -0.0 57.5
1.439993 -0.0 57.5
1.449995 -0.0 57.5
1.459999 -0.0 57.5
1.469987 -0.0 57.5
1.47999 -0.0 57.5
1.489991 -0.0 57.5
1.499995 -0.0 57.5
1.510004 -0.0 57.5
1.519992 -0.0 57.5
1.529994 -0.0 57.5
1.540001 -0.0 57.5
1.549988 -0.0 57.5
1.559998 -0.0 57.5
1.570002 -0.0 57.5
1.579993 -0.0 57.5
1.589997 -0.0 57.5
1.599987 -0.0 57.5
1.609993 -0.0 57.5
1.619988 -0.0 57.5
1.629994 -0.0 57.5
1.63999 -0.0 57.5
1.650001 -0.0 57.5
1.659993 -0.0 57.5
1.669999 -0.0 57.5
1.679998 -0.0 57.5
1.690005 -0.0 57.5
1.700002 -0.0 57.5
1.709991 -0.0 57.5
1.719994 -0.0 57.5
1.730002 -0.0 57.5
1.740001 -0.0 57.5
1.749991 -0.0 57.5
1.760005 -0.0 57.5
1.769997 -0.0 57.5
1.779996 -0.0 57.5
1.789987 -0.0 57.5
1.800004 -0.0 57.5
1.809996 -0.0 57.5
1.819994 -0.0 57.5
1.829999 -0.0 57.5
1.839997 -0.0 57.5
1.849991 -0.0 57.5
1.85999 -0.0 57.5
1.869996 -0.0 57.5
1.879989 -0.0 57.5
1.890003 -0.0 57.5
1.900003 -0.0 57.5
1.909998 -0.0 57.5
1.919995 -0.0 57.5
1.929991 -0.0 57.5
1.939992 -0.0 57.5
1.949989 -0.0 57.5
1.959992 -0.0 57.5
1.969996 -0.0 57.5
1.97999 -0.0 57.5
1.989987 -0.0 57.5
1.99999 -0.0 57.5
2.00999 -0.0 57.5
2.019995 -0.0 57.5
2.029994 -0.0 57.5
2.039998 -0.0 57.5
2.049997 -0.0 57.5
2.059994 -0.0 57.5
2.069993 -0.0 57.5
2.079995 -0.0 57.5
2.089996 -0.0 57.5
2.1 -0.0 57.5
2.110002 -0.0 57.5
2.119988 -0.0 57.5
2.129991 -0.0 57.5
2.139998 -0.0 57.5
2.15 -0.0 57.5
2.159991 -0.0 57.5
2.169996 -0.0 57.5
2.180016 -0.0 57.5
2.190003 -0.0 57.5
2.199998 -0.0 57.5
2.210003 -0.0 57.5
2.219997 -0.0 57.5
2.230002 -0.0 57.5
2.239995 -0.0 57.5
2.249997 -0.0 57.5
2.259997 -0.0 57.5
2.270003 -0.0 57.5
2.279999 -0.0 57.5
2.28999 -0.0 57.5
2.300002 -0.0 57.5
2.309988 -0.0 57.5
2.319993 -0.0 57.5
2.330003 -0.0 57.5
2.339999 -0.0 57.5
2.349991 -0.0 57.5
2.359989 -0.0 57.5
2.369994 -0.0 57.5
2.379992 -0.0 57.5
2.390002 -0.0 57.5
2.4 -0.0 57.5
2.409994 -0.0 57.5
2.419993 -0.0 57.5
2.429991 -0.0 57.5
2.439992 -0.0 57.5
2.450004 -0.0 57.5
2.459987 -0.0 57.5
2.469987 -0.0 57.5
2.47999 -0.0 57.5
2.489989 -0.0 57.5
2.499992 -0.0 57.5
2.509992 -0.0 57.5
2.519995 -0.0 57.5
2.529997 -0.0 57.5
2.540001 -0.0 57.5
2.550001 -0.0 57.5
2.559989 -0.0 57.5
2.56999 -0.0 57.5
2.579996 -0.0 57.5
2.590003 -0.0 57.5
2.599992 -0.0 57.5
2.609995 -0.0 57.5
2.619988 -0.0 57.5
2.629997 -0.0 57.5
2.639989 -0.0 57.5
2.649995 -0.0 57.5
2.660002 -0.0 57.5
2.66999 -0.0 57.5
2.679997 -0.0 57.5
2.69 -0.0 57.5
2.699993 -0.0 57.5
2.709997 -0.0 57.5
2.71999 -0.0 57.5
2.729994 -0.0 57.5
2.740003 -0.0 57.5
2.749992 -0.0 57.5
2.759991 -0.0 57.5
2.769997 -0.0 57.5
2.779992 -0.0 57.5
2.789999 -0.0 57.5
2.799995 -0.0 57.5
2.810004 -0.0 57.5
2.820004 -0.0 57.5
2.829997 -0.0 57.5
2.839995 -0.0 57.5
2.849992 -0.0 57.5
2.859991 -0.0 57.5
2.869996 -0.0 57.5
2.879999 -0.0 57.5
2.889992 -0.0 57.5
2.899993 -0.0 57.5
2.910003 -0.0 57.5
2.919996 -0.0 57.5
2.92999 -0.0 57.5
2.939991 -0.0 57.5
2.950003 -0.0 57.5
2.960003 -0.0 57.5
2.969994 -0.0 57.5
2.97999 -0.0 57.5
2.990003 -0.0 57.5
3.000004 -0.0 57.5